9662 645192 509
496842 835960 509
65736 912872 525
542221 778140 509
388201 562053 470
546905 897422 525
13403 295343 443
95645 841673 525
441764 542174 470
173476 667363 509
357693 720236 509
141714 398775 443
605642 769086 509
297297 734310 509
313660 416010 449
799581 957890 525
196327 830617 509
543410 682054 509
13244 122775 354
54481 904344 525
477173 944370 525
687065 991344 525
224041 989122 525
481551 609747 470
12262 459421 449
153199 312420 443
279754 619472 470
117403 623039 470
77785 161639 383
598975 680607 509
16848 129872 354
97828 730916 509
454510 471524 444
156623 283192 443
98722 237264 443
362477 917353 525
329238 912765 525
900191 976168 507
114198 215285 383
367305 649551 509
105512 489961 449
696406 989574 525
251332 449093 449
218131 993563 525
829766 836807 419
4428 134963 354
4139 803594 509
618904 703023 509
742419 904280 525
17579 676664 509
540093 945481 525
84374 154132 375
271405 942808 525
625419 983700 525
330974 837700 509
101075 700862 509
255192 874159 525
462064 777023 509
422897 578753 470
239551 782172 509
973399 981508 427
344175 996916 525
77865 948493 525
886105 988209 507
238661 682542 509
34603 329509 443
373848 466859 449
852593 877851 432
249483 831252 509
580729 889392 525
7529 794709 509
632983 935905 525
268291 568222 470
300140 982599 525
110408 608821 470
601085 820576 509
374743 589427 470
71422 445118 449
77428 155093 375
58473 303273 443
239624 459504 449
256416 342440 407
736889 825619 468
70301 176664 383
409799 753932 509
11725 656205 509
81503 952371 525
868198 956900 507
564452 663262 509
289095 665629 509
430392 587388 470
424512 529458 470
187642 258568 443
232714 758697 509
722139 808093 468
67950 322781 443
251327 425179 449
154399 869761 525
20033 306251 443
329316 819607 509
153013 412159 449
249193 438124 449
107895 752954 509
512696 681489 509
405525 519347 470
240702 873971 525
366281 935529 525
38413 524373 470
562386 803351 509
131011 368260 443
657731 793627 504
75114 78838 351
179562 205078 365
300858 310396 371
263436 468987 449
748811 930673 525
247543 510518 449
157206 345997 443
458544 943328 525
518052 623104 452
850319 915152 476
93661 304353 443
4020 686374 509
188280 197984 360
337852 789575 509
133077 916775 525
308849 365756 441
112327 261619 443
703543 814703 504
238023 970960 525
15964 550224 470
779808 997720 525
3923 146290 375
121392 455505 449
1521 437756 449
29213 36593 324
71974 629343 509
428211 664449 509
713082 902042 525
405051 901626 525
467380 992356 525
108230 197861 383
120240 579308 470
429726 779540 509
387245 556196 470
162831 582207 470
143733 752092 509
94308 460992 449
793709 828918 468
202415 705051 509
498869 677250 509
185251 958784 525
48419 682320 509
155384 651818 509
191188 391115 443
445817 510229 444
122157 270164 443
464492 521240 470
660504 934179 525
212830 529830 470
759656 938835 525
566884 839245 525
126480 683573 509
193929 657767 509
276018 709141 509
245132 982228 525
476021 675831 509
59617 472383 449
601787 783629 509
646299 948715 525
895712 947943 507
266346 871818 525
159955 994644 525
464882 510277 426
46496 428332 449
470713 578677 470
1992 177931 383
165095 920664 525
563066 847610 525
55062 551398 470
191337 937761 525
58121 343295 443
229371 855873 525
296242 349185 441
810655 841478 525
691731 718959 504
295907 881311 525
354084 843777 525
273124 931371 525
170280 338592 443
55022 682878 509
279754 822487 509
62469 657938 509
594665 768919 509
464437 708107 509
353086 378720 423
140075 715403 509
672899 932063 525
450580 771488 509
277528 420773 449
